{
    "hello": [
      "/path/to/file1.txt",
      "/path/to/file2.txt"
    ],
    "world": [
      "/path/to/file1.txt"
    ],
    "example": [
      "/path/to/file3.txt"
    ],
    "test": [
      "/path/to/file2.txt",
      "/path/to/file4.txt"
    ]
  }